Everyday Statistics
…
library(tidyverse)
library(inspectdf)
library(broom)

Remember that if your console says Error package name not found, you will need to install the package using install.packages("packagename"). I like to put the install lines in my script, run them to install the package, and then comment the line out so that installations will not get in the way of rendering the document (in case you want to do that).

As our final set-up step, lets load in the homes dataset that we have been using for the past few weeks. This is the version after all of the cleaning steps we did with David in the Data Prep lesson.

We will use the read_csv() function from the tidyverse to get our data into R. Once weve loaded it, we can type the name of the object itself (homes) to see it printed to the screen.

homes <- read_csv("albemarle_homes.csv")
homes

## # A tibble: 31,228 x 27
##    tmp   yearbuilt yearremodeled usecode condition finsqft cooling bedroom
##    <chr>     <dbl>         <dbl> <chr>   <chr>       <dbl> <chr>     <dbl>
##  1 0030      1939            NA Single Fair         1596 No Cen       3
##  2 0030      1981            NA Single Average      1616 No Cen       6
##  3 0030      1999            NA Single Average       480 No Cen       0
##  4 0030      1754            NA Single Substand     828 No Cen       1
##  5 0030      1880            NA Single Fair         1224 No Cen       2
##  6 0050      1769          1988 Single Average      4875 Centra       4
##  7 0050      1818          1991 Single Average      5573 Centra       6
##  8 0060      1935          1994 Single Average      1120 No Cen       3
##  9 0060      1880          1978 Single Average      1458 Centra       3
## 10 0060      2005            NA Single Average      1888 Centra       3
## #  with 31,218 more rows, and 19 more variables: fullbath <dbl>,
## #   halfbath <dbl>, totalrooms <dbl>, lotsize <dbl>, landvalue <dbl>,
## #   improvementsvalue <dbl>, totalvalue <dbl>, lastsaleprice <dbl>,
## #   lastsaledate1 <chr>, esdistrict <chr>, msdistrict <chr>, hsdistrict <chr>,
## #   censustract <dbl>, lastsaledate <date>, age <dbl>, condition2 <chr>,
## #   remodel <dbl>, fp <dbl>, landuse <dbl>
…
What do you notice?

What is going on with age around 260

filter(homes, age < 270 & age > 250)

## # A tibble: 419 x 27
##    tmp   yearbuilt yearremodeled usecode condition finsqft cooling bedroom
##    <chr>     <dbl>         <dbl> <chr>   <chr>       <dbl> <chr>     <dbl>
##  1 0030      1754            NA Single Substand     828 No Cen       1
##  2 0070      1754            NA Single Substand     863 No Cen       0
##  3 0090      1754            NA Single Fair         1000 No Cen       3
##  4 0090      1754          1993 Single Average      1859 No Cen       3
##  5 0090      1754            NA Single Fair          520 No Cen       1
##  6 0090      1754            NA Single Average      1580 No Cen       4
##  7 0100      1754            NA Single Fair          768 No Cen       2
##  8 0100      1754            NA Single Poor          629 No Cen       2
##  9 0110      1754          1987 Single Average      3236 Centra       4
## 10 0130      1754            NA Single Substand     912 No Cen       0
## #  with 409 more rows, and 19 more variables: fullbath <dbl>, halfbath <dbl>,
## #   totalrooms <dbl>, lotsize <dbl>, landvalue <dbl>, improvementsvalue <dbl>,
## #   totalvalue <dbl>, lastsaleprice <dbl>, lastsaledate1 <chr>,
## #   esdistrict <chr>, msdistrict <chr>, hsdistrict <chr>, censustract <dbl>,
## #   lastsaledate <date>, age <dbl>, condition2 <chr>, remodel <dbl>, fp <dbl>,
## #   landuse <dbl>
…
